{
  "project_info": {
    "project_number": "422355396585",
    "firebase_url": "https://my-boilerplate-a1c4d.firebaseio.com",
    "project_id": "my-boilerplate-a1c4d",
    "storage_bucket": "my-boilerplate-a1c4d.appspot.com"
  },
  "client": [
    {
      "client_info": {
        "mobilesdk_app_id": "1:422355396585:android:a2eff3efbf5cae58edcd78",
        "android_client_info": {
          "package_name": "com.example.boilerplate"
        }
      },
      "oauth_client": [
        {
          "client_id": "422355396585-t2379evudi567snr5r2n463gti4olo6f.apps.googleusercontent.com",
          "client_type": 3
        }
      ],
      "api_key": [
        {
          "current_key": "AIzaSyDdsLFk_Mj7C3TEUVdWNS9J1XrK7MWfNVI"
        }
      ],
      "services": {
        "appinvite_service": {
          "other_platform_oauth_client": [
            {
              "client_id": "422355396585-t2379evudi567snr5r2n463gti4olo6f.apps.googleusercontent.com",
              "client_type": 3
            }
          ]
        }
      }
    }
  ],
  "configuration_version": "1"
}